1:
0.42
0.71
0.48
0.34
1.35
0.17
0.67
0.38
0.98
0.48
2.48
0.51
0.91
0.06
0.27
0.82
0.25
0.54
0.08
0.87
0.02
0.00
1.58
10:
0.41
0.14
1000:
0.59
0.23
1.00
0.00
1.07
1.15
1.67
0.71
0.56
0.85
1.36
0.98
0.60
0.65
0.72
0.40
0.36
0.61
0.55
0.00
3.00
0.73
0.30
1.41
0.41
1.55
0.03
10000:
0.59
0.60
10001:
0.54
0.16
0.26
1.41
0.00
1.78
0.69
1.19
1.17
2.35
0.98
0.97
1.20
0.93
0.35
0.19
0.73
10002:
0.49
0.46
0.04
0.77
10003:
0.14
10004:
0.46
1.44
0.79
1.61
0.84
1.20
1.08
1.29
0.24
2.70
1.43
2.31
1.26
0.25
0.00
0.06
0.09
0.90
0.91
0.50
0.28
0.51
1.75
1.38
0.21
0.70
1.36
1.17
1.33
0.91
0.98
10005:
2.97
0.43
1.46
0.59
1.00
10006:
0.59
0.98
0.22
1.49
10007:
0.21
1.07
2.52
0.40
2.17
1.67
0.67
1.00
0.53
0.91
1.39
0.13
2.57
10008:
0.79
0.55
1.41
1.06
0.31
0.07
1.05
10009:
1.00
0.76
0.92
0.05
1.21
1.33
1001:
0.50
0.18
0.84
0.31
1.44
2.29
1.01
0.97
0.94
1.04
0.09
0.40
1.15
1.00
0.68
1.41
1.29
0.09
1.20
0.50
0.50
0.03
1.41
0.04
1.19
0.15
0.89
1.94
0.73
1.37
1.95
0.00
1.76
1.26
0.58
0.23
0.64
0.00
1.33
1.00
0.25
0.70
1.09
0.72
0.37
0.88
1.29
0.32
1.48
0.35
0.55
1.48
0.20
1.17
0.40
0.44
2.85
0.58
0.76
0.44
0.31
1.40
0.64
0.15
0.38
1.43
0.06
0.73
0.73
0.27
1.15
0.43
0.81
0.29
1.50
1.01
0.10
0.28
0.08
0.81
1.50
0.24
0.80
1.89
0.78
0.47
1.37
0.47
0.36
1.25
0.67
0.28
0.36
0.07
0.39
0.08
0.61
0.00
1.42
1.25
0.77
1.00
0.33
0.31
0.56
1.72
0.05
0.79
0.06
0.08
0.68
0.63
0.33
0.28
0.33
0.33
2.29
2.47
0.04
0.66
1.57
0.75
0.85
0.25
0.50
0.54
0.67
0.12
1.08
0.39
0.27
0.01
0.89
1.64
10010:
0.49
0.30
2.34
3.18
1.74
0.64
2.62
1.38
2.04
0.72
0.31
0.09
0.43
1.93
2.09
0.30
0.12
1.14
0.53
0.47
1.11
0.96
2.41
10011:
0.12
0.48
10012:
0.61
0.53
0.43
0.60
1.20
0.72
0.02
0.00
0.52
0.15
2.25
0.45
0.64
10013:
0.87
0.40
0.32
0.04
1.34
0.21
0.31
0.92
0.64
1.13
1.03
0.55
0.94
0.29
1.38
0.57
0.08
0.44
0.44
0.93
0.34
0.80
1.52
0.14
0.96
0.40
0.42
0.09
2.38
0.73
0.81
0.44
1.27
1.12
0.53
0.27
0.37
0.31
0.67
1.08
3.48
1.60
0.01
1.15
0.49
0.07
0.44
0.23
1.45
0.10
1.33
0.41
0.89
2.03
1.48
0.18
0.85
10014:
1.27
0.80
0.05
0.38
0.67
10015:
0.39
0.10
1.29
0.62
0.23
1.69
1.11
0.67
1.21
0.47
1.21
0.54
0.78
1.07
1.07
0.64
0.50
0.98
0.70
0.11
0.01
0.95
0.45
1.33
1.00
1.13
0.75
1.49
10016:
0.40
1.60
0.98
1.25
0.67
10017:
0.19
2.00
0.78
10018:
0.53
0.15
1.18
0.01
0.59
0.75
0.39
0.15
0.63
0.05
1.71
0.93
0.00
0.24
0.96
0.80
0.55
0.60
0.62
0.40
0.50
0.00
2.05
0.84
1.63
0.98
0.14
0.16
0.97
0.92
10019:
0.67
0.00
0.01
1.24
0.40
0.47
1.25
0.83
0.97
0.21
0.29
0.17
0.21
0.44
1.00
0.19
0.91
1.88
0.41
1.65
1.00
1.04
0.01
0.21
0.83
1.86
0.69
0.48
0.33
1.00
0.05
0.00
1.00
0.24
0.51
0.74
1.41
1.13
1.18
0.36
0.77
0.46
0.34
0.91
1.45
0.16
0.05
0.59
1.70
0.23
0.37
2.57
0.19
0.50
0.00
2.40
0.88
0.58
0.39
2.53
1.18
0.39
0.89
0.60
1.27
0.00
0.57
0.92
0.20
1002:
0.28
1.14
0.47
0.74
1.00
0.20
0.61
0.40
0.29
0.15
1.37
1.61
0.50
1.78
10020:
0.10
0.03
1.31
0.90
0.75
0.47
0.33
0.13
1.00
0.84
0.78
0.21
0.00
1.56
1.18
1.22
1.13
1.31
0.96
0.44
0.26
0.78
1.35
1.33
0.87
0.33
0.92
10021:
2.64
2.00
2.16
2.75
10022:
0.44
1.69
0.76
0.19
0.12
0.31
0.80
0.83
10023:
0.07
0.12
0.08
1.43
0.18
1.57
0.59
1.16
1.50
0.96
0.58
10024:
0.22
0.17
1.75
0.95
1.21
0.17
0.25
0.56
0.92
1.94
10025:
1.33
10027:
0.58
1.11
0.61
1.44
0.87
1.44
0.23
0.25
1.00
0.62
0.64
0.25
1.00
0.36
0.25
0.50
0.53
1.07
0.94
1.98
0.17
1.38
0.67
2.89
0.88
0.09
0.24
3.37
0.00
0.62
0.44
1.08
1.14
0.32
0.71
0.91
0.36
0.08
0.03
0.42
0.71
0.60
0.08
0.40
0.52
0.36
1.10
2.80
0.90
0.20
0.25
0.84
0.55
0.53
0.35
1.22
0.39
1.56
0.74
0.08
1.43
0.78
0.54
0.85
0.60
0.05
1.70
0.01
1.17
0.13
2.05
0.02
0.69
0.94
0.59
0.85
0.86
0.43
0.21
0.54
0.37
1.74
0.29
1.16
1.08
0.82
0.67
0.05
10028:
0.49
0.76
0.50
0.49
0.00
0.43
0.18
10029:
0.59
0.50
1.48
0.25
10031:
0.64
1.87
0.03
0.71
0.80
0.67
0.00
0.49
0.93
10032:
1.83
0.17
0.80
0.31
0.10
0.81
0.45
0.62
0.84
0.44
0.90
0.24
0.27
0.53
0.21
0.75
0.36
1.54
0.62
0.32
0.79
1.43
0.70
1.57
1.14
0.06
0.06
0.48
0.50
0.78
1.40
0.81
0.82
1.21
1.40
1.02
0.30
0.72
0.58
1.38
1.47
2.65
0.51
1.99
1.62
0.37
0.03
10033:
0.82
0.38
2.09
1.07
0.23
1.91
2.00
0.36
1.00
0.61
0.08
0.72
0.00
0.24
10034:
1.41
0.67
10035:
1.73
0.62
0.78
0.10
0.14
0.86
1.22
0.37
0.75
1.57
0.72
0.60
1.27
0.15
0.43
0.40
1.21
0.05
0.05
0.08
10036:
0.00
0.25
0.44
1.17
1.22
0.21
0.12
0.62
0.29
0.06
0.00
1.52
0.00
1.19
0.50
1.10
0.54
0.87
0.53
0.95
0.36
1.75
0.13
0.18
0.50
0.10
0.24
1.08
1.08
2.12
1.45
2.01
0.87
1.82
0.20
0.38
0.34
0.38
0.60
0.11
2.27
1.50
0.84
0.72
1.15
0.93
0.54
0.00
0.04
1.04
0.82
1.25
1.53
0.19
1.49
0.33
0.52
0.21
0.58
0.05
0.35
0.76
0.87
0.66
1.07
1.40
1.69
0.50
1.27
0.10
0.43
0.00
0.19
0.79
1.27
0.08
0.10
0.88
0.97
0.01
0.33
2.59
0.57
1.06
1.67
0.69
0.63
0.79
0.17
0.22
0.50
1.14
0.42
1.04
0.55
0.16
1.87
0.20
2.36
0.97
0.98
1.29
0.41
0.64
0.54
0.20
0.25
0.10
1.43
2.75
0.30
2.26
0.29
0.50
0.65
0.42
1.50
0.28
1.46
0.83
0.40
0.29
0.13
0.58
0.18
1.11
1.27
0.58
1.50
0.23
0.80
1.95
0.86
0.00
0.46
0.13
0.11
1.40
0.08
1.16
0.62
0.90
0.33
0.44
0.95
0.40
0.22
1.23
0.69
0.73
1.17
1.19
2.00
0.52
0.57
0.67
1.71
1.17
1.46
0.30
0.02
0.50
2.81
0.96
0.43
0.42
1.05
0.74
0.97
0.61
1.73
0.59
0.05
1.47
0.83
1.81
1.57
0.02
0.19
2.29
1.57
1.29
0.89
0.99
