1:
3.6655
3.52
3.613
4.204
3.6975
3.7915
3.5415
3.683
3.864
3.6325
3.136
3.6185
3.918
3.846
3.2385
3.963
3.75
4.1025
3.9135
3.9385
3.3855
4.375
3.5855
10:
3.295
3.1625
1000:
3.4385
3.2595
3.142
4.142
3.6075
3.565
3.4755
3.7855
3.3595
3.2165
3.463
3.631
3.4405
3.968
3.7795
3.3395
3.3225
3.336
3.417
3.642
3.642
3.779
2.9905
3.3455
3.849
3.366
3.628
10000:
3.654
3.751
10001:
3.631
3.9825
3.7735
3.1985
3.902
3.512
3.5595
3.8095
3.815
3.2255
3.9105
3.918
3.302
3.936
3.7285
3.806
4.036
10002:
3.9745
3.492
4.198
3.836
10003:
2.8035
10004:
4.3765
3.8825
4.0
3.8
4.1825
4.003
4.062
3.9575
3.9845
3.9525
3.89
3.7605
3.974
3.7295
4.6045
4.1325
4.0575
4.0545
4.15
4.3545
3.9665
3.8515
3.7285
3.912
4.4975
3.7525
3.9225
4.021
3.438
4.152
4.1165
10005:
3.606
3.8375
3.395
3.327
3.6225
10006:
3.7065
3.419
3.8005
3.1635
10007:
2.873
3.234
3.031
2.967
2.853
3.103
2.936
3.2695
3.0325
3.2225
2.9645
3.206
3.0565
10008:
4.1765
3.5095
3.578
3.315
3.9385
3.819
3.8075
10009:
3.6485
3.5305
4.11
3.1245
3.043
3.482
1001:
3.4085
3.5675
3.7405
3.314
3.8775
3.803
3.666
3.645
3.131
3.6395
3.613
3.8605
3.231
3.6585
3.4985
3.452
3.8015
3.7015
3.2595
3.4085
3.4085
3.6435
3.455
3.179
3.566
3.2335
3.6015
3.629
3.795
3.845
3.6325
4.1585
3.2785
3.5305
3.45
3.546
3.837
3.1585
3.492
3.6605
3.7815
3.3065
3.615
3.7995
3.845
3.717
3.5125
3.3205
3.3975
3.835
3.3835
2.896
3.0585
3.575
3.8585
3.8805
3.582
3.4475
3.5365
3.376
3.504
3.3585
3.337
3.235
3.846
3.373
3.19
3.294
3.795
3.5225
3.2355
3.4415
3.564
3.3015
2.9085
3.665
3.106
3.0205
3.618
3.5615
3.9085
3.7805
3.0605
3.214
3.549
3.3955
3.476
3.893
3.4765
3.2835
3.825
3.5185
3.48
3.6955
3.353
3.1185
3.355
4.1585
3.4465
3.7835
3.541
3.6585
3.325
3.315
3.3785
3.518
3.6335
3.762
3.6275
3.12
3.319
3.4755
3.492
3.298
3.492
2.992
3.305
3.896
3.68
3.3265
3.444
3.534
3.5815
3.5335
3.41
3.43
3.325
3.5995
3.6195
3.4615
3.525
3.664
3.603
3.4765
10010:
2.953
2.8495
2.87
3.2875
3.0715
2.8785
3.0085
2.889
2.7185
3.0575
2.8525
2.7465
2.916
2.664
3.2445
2.851
2.762
3.1285
2.4345
2.9335
2.7535
2.677
2.9055
10011:
4.078
3.898
10012:
3.3625
3.823
3.3455
3.36
3.6575
3.6975
3.049
3.0585
3.317
3.484
3.686
3.3315
3.3805
10013:
3.575
3.3375
3.4795
3.619
3.47
3.533
3.295
3.5985
3.459
3.705
3.1555
3.865
3.609
3.494
3.3285
3.4255
3.179
3.3625
3.418
3.1735
3.31
3.24
3.4015
3.709
3.659
3.3385
3.4275
3.0945
3.3285
3.5045
3.237
3.361
3.2775
3.701
3.404
3.2755
3.4565
3.7945
3.8075
3.1815
3.8795
3.44
3.645
3.7165
3.397
3.1745
3.422
3.524
3.365
3.5915
3.3065
3.344
3.5835
3.657
3.3815
3.049
3.713
10014:
3.2295
3.696
3.1205
3.7885
3.4295
10015:
3.713
3.457
3.265
3.5955
3.794
3.5655
3.8525
3.7415
3.801
3.671
3.802
3.64
3.5175
3.8745
3.8745
3.589
3.658
3.8955
3.557
3.851
4.4005
3.8835
4.134
3.7415
3.408
3.473
4.033
3.6625
10016:
2.652
2.7505
2.9435
3.078
3.6155
10017:
3.088
3.491
3.38
10018:
4.0605
3.9
3.239
3.3325
3.5305
3.7005
3.63
3.404
3.013
3.8515
3.47
3.7935
3.327
3.705
3.346
3.727
3.601
3.627
3.5145
3.627
4.077
3.327
3.85
3.909
3.511
3.835
3.7555
3.748
3.844
3.865
10019:
3.5365
2.7005
3.6935
3.321
3.9985
3.937
3.5755
3.114
3.7175
3.593
4.0535
3.285
3.3035
3.4225
3.7005
3.608
3.745
3.638
3.4975
4.0275
3.7005
3.7215
3.7055
3.5945
3.783
3.631
3.357
3.4425
3.534
3.7005
3.6775
3.2005
3.7005
3.8195
3.444
3.8305
2.996
3.7665
3.7925
3.8825
3.816
3.928
3.8715
3.7435
3.9255
3.2795
3.7235
3.904
3.5505
3.585
3.384
3.4835
3.797
3.452
2.2005
3.0025
3.1405
3.4115
4.0035
3.4635
3.2905
3.5055
4.145
3.4995
3.834
4.2005
3.484
4.162
3.6015
1002:
3.5835
3.154
3.487
3.5935
3.2235
3.6235
3.917
3.0235
3.577
3.649
3.906
3.5305
3.4735
3.3345
10020:
3.8635
3.9015
3.7585
3.9645
3.788
3.68
3.749
3.98
3.9155
3.8335
3.8045
4.3085
3.9155
3.6375
3.8275
3.807
3.9805
3.568
3.9345
3.6375
4.047
3.526
3.739
3.749
3.482
3.082
3.9565
10021:
2.8235
3.005
3.084
2.88
10022:
2.8595
3.425
3.2
3.175
3.519
3.429
2.9815
2.9975
10023:
3.791
3.765
3.7865
3.61
4.238
3.612
3.531
3.7475
3.5745
3.805
4.039
10024:
3.603
3.8005
3.589
3.7415
3.6085
3.6285
3.3365
3.4315
3.675
3.6845
10025:
3.237
10027:
4.1245
3.8625
3.7235
3.699
3.35
3.6965
3.5345
4.292
3.417
4.1075
3.735
3.7905
3.917
3.598
3.7915
4.167
3.6525
3.883
3.945
3.9065
3.502
3.7295
3.7525
3.8615
3.978
3.874
4.0365
4.101
4.417
4.1095
4.1365
3.9585
3.488
3.7565
4.0625
3.9625
4.237
3.8775
3.9025
3.629
4.06
4.117
4.3745
3.7175
3.6755
4.096
3.8685
3.8185
3.967
4.017
3.7945
3.9955
3.6905
3.651
3.5895
3.806
3.6135
3.6365
4.049
3.9595
3.7025
3.5255
4.1445
3.492
4.1165
4.3915
3.567
3.9225
3.5005
3.983
3.944
3.9275
4.0735
3.9465
4.121
3.8405
3.989
3.702
3.3115
3.689
4.231
4.286
3.5635
3.8385
3.8785
4.008
3.7505
3.8935
10028:
3.242
3.3645
3.2365
3.743
3.9865
3.2015
3.897
10029:
3.3355
3.792
3.78
3.167
10031:
3.4565
3.2055
3.653
2.9935
3.7375
3.3045
3.1355
2.8935
3.1745
10032:
3.419
4.253
3.9365
3.9915
3.887
3.2395
3.613
3.524
3.7545
3.1155
3.387
3.956
4.203
3.572
3.939
3.2135
3.656
3.5655
3.524
3.678
3.439
3.6235
3.4885
3.551
3.7685
3.368
3.309
3.595
4.0865
3.445
3.6345
3.7405
3.926
3.7295
3.1365
3.848
3.6845
3.476
3.5485
3.646
3.5995
3.6605
3.5895
3.3435
3.529
3.6515
3.823
10033:
3.6385
3.357
3.0065
3.514
3.4365
3.096
3.5495
3.2315
3.5495
3.243
3.5905
3.4085
4.0495
3.6685
10034:
2.5155
3.476
10035:
3.151
4.2025
4.126
4.0635
4.086
4.083
3.905
3.7
3.6385
3.7275
3.8745
3.817
3.879
3.9415
3.799
3.8125
3.907
4.0405
3.991
4.4725
10036:
3.914
3.539
3.633
3.4975
3.803
3.811
3.356
3.7225
3.271
3.3865
3.416
3.6725
3.914
3.8205
4.164
3.864
3.684
3.848
3.1475
3.3905
3.7355
3.539
4.3475
3.823
3.664
3.964
3.795
3.875
3.8715
3.3525
3.639
3.407
3.3465
3.506
3.314
3.6025
3.7435
3.7215
3.6135
3.858
3.549
3.664
3.9925
3.774
3.839
3.9475
4.145
4.414
3.432
3.8955
3.5035
3.789
3.648
3.32
3.667
3.7475
3.654
4.307
3.6265
3.8895
3.7405
4.0335
3.4775
4.0845
3.3805
4.1125
3.759
3.664
3.7775
3.862
4.1965
3.914
3.8165
3.5165
3.7795
3.9525
3.9655
3.4765
3.931
3.919
3.7475
3.708
4.1315
3.885
3.2475
3.759
3.5995
3.8085
3.8305
3.525
3.164
3.9835
3.623
3.9345
3.64
3.493
3.4805
3.815
3.593
3.929
3.9225
3.271
3.6185
4.0925
3.645
3.313
4.2865
3.4615
3.699
3.791
3.7635
3.5445
3.561
3.664
3.588
3.7025
4.164
3.553
3.6415
3.8275
3.716
3.7685
3.849
3.7045
3.826
3.4695
3.7775
4.1225
3.664
3.527
4.014
3.441
3.4855
4.414
3.6845
3.48
3.8595
3.7165
3.9525
3.335
4.105
3.964
3.7475
3.692
3.439
4.214
3.524
3.7965
3.569
3.5505
4.001
3.819
3.914
3.652
3.6285
3.5805
4.267
3.8305
3.685
4.0645
3.903
3.664
3.82
3.8915
3.701
3.703
3.887
4.0445
3.928
3.6085
3.551
3.618
3.941
3.678
3.83
3.821
3.6295
3.902
3.817
4.06
3.6975
4.0565
3.4705
3.7705
4.2115
3.6525
3.6955
3.514
3.867
3.717
3.6255
3.4975
3.814
4.1735
3.9025
3.372
3.6975
3.977
3.4255
3.753
3.721
3.744
3.571
3.8475
3.3475
4.323
3.728
4.114
3.914
3.6475
3.632
3.573
4.0445
3.664
3.583
10037:
3.777
3.253
3.447
3.7015
3.6195
3.656
3.392
3.103
3.4685
3.6595
3.4775
3.449
3.443
3.466
10038:
3.889
3.417
3.3235
3.4095
3.3185
3.558
3.559
3.2175
10039:
2.588
1004:
2.9555
2.8085
3.327
3.137
3.3195
3.2725
3.027
3.612
2.884
3.277
3.3605
3.477
3.4815
3.527
3.0745
2.884
3.218
3.3185
3.127
3.233
3.2985
3.527
3.527
2.577
3.027
2.834
3.246
3.2645
3.1035
3.2695
3.027
10040:
3.3365
3.214
3.5835
10041:
3.878
3.2505
3.431
3.1455
3.3245
3.289
3.675
3.299
2.2945
3.164
2.0445
3.475
3.693
2.9445
3.3955
3.4445
3.352
3.099
3.2395
2.996
3.2235
3.412
3.2375
3.331
3.471
2.972
3.399
2.995
3.3625
3.018
3.4395
10042:
4.186
3.8225
4.1365
3.9125
4.109
4.627
4.4185
4.0405
4.426
4.0005
4.2085
4.002
4.2935
4.089
4.154
4.286
3.752
4.502
4.3985
4.1825
4.752
4.341
3.684
4.1
4.1705
4.437
4.371
3.581
4.246
4.1855
4.2725
4.239
4.1435
4.3145
4.252
4.478
4.152
4.502
4.048
3.812
4.204
4.0475
4.023
3.9525
4.502
4.367
4.1575
3.923
4.153
3.8915
3.9865
4.3235
4.432
3.252
4.606
4.3825
3.732
4.203
3.8375
4.05
4.136
4.228
4.1665
4.1535
3.707
3.813
4.021
4.6185
4.1895
3.9605
3.968
4.176
4.163
3.99
3.752
4.4225
4.332
4.0995
4.124
4.252
3.8715
4.452
4.193
4.125
4.371
3.9795
4.436
4.242
3.8155
4.4295
3.9875
4.1945
4.7295
4.072
4.102
4.052
3.9675
4.1565
4.156
4.0075
4.289
4.3145
3.8355
4.527
4.279
4.0595
4.113
4.132
4.5145
4.2185
4.407
4.1515
4.202
4.3015
4.066
4.1465
4.1625
3.927
4.1855
4.4445
3.8825
4.4415
4.087
4.502
4.252
4.618
3.82
3.9865
4.186
3.925
3.9795
4.1685
4.1165
3.202
4.075
4.142
4.4875
4.621
3.9295
4.752
4.07
4.53
4.0985
3.802
4.1915
4.052
4.202
3.7175
3.9505
4.289
3.988
4.219
4.606
4.1435
4.282
3.8075
4.019
3.747
3.857
4.252
3.8065
4.384
4.148
4.2005
3.877
4.357
4.017
3.9885
4.068
4.1405
4.352
4.3535
3.9165
4.161
4.3375
4.007
4.26
4.446
4.579
4.015
4.1315
4.752
4.6685
4.006
4.1715
4.4505
3.969
3.7815
4.057
4.339
3.9755
4.1185
4.288
3.877
4.345
4.4845
4.359
4.1085
4.154
4.133
4.252
4.3375
4.1895
4.252
4.2375
3.452
4.252
4.1915
4.201
4.019
3.9585
4.0355
4.425
4.394
4.463
4.3285
4.627
4.252
4.118
4.2645
4.1145
4.2705
4.392
4.33
4.1805
4.239
4.3385
3.9835
4.502
4.1
4.1595
4.1715
4.347
4.752
4.4315
4.0855
4.752
3.956
4.401
4.1435
3.968
4.5045
4.4185
4.3095
4.255
4.641
4.5315
4.303
4.1155
4.2225
3.7765
4.109
4.5165
4.0855
3.9605
4.609
3.9785
4.276
4.2675
3.868
4.102
4.252
4.015
4.446
3.742
4.066
4.4305
4.28
4.1805
4.0145
4.137
4.3725
4.099
3.958
4.552
3.9255
4.152
4.1175
4.4605
4.279
4.1225
3.9785
4.2935
4.0245
4.2355
4.0365
4.075
4.352
4.0105
4.227
4.2305
3.877
4.26
3.968
3.952
3.907
4.0515
4.2745
4.027
4.0665
4.2835
4.1685
4.193
4.196
3.845
4.147
4.108
4.399
4.249
4.021
4.1365
4.1955
4.752
4.228
4.111
4.4445
4.252
4.363
4.3295
4.0125
4.257
4.0375
4.337
4.2665
4.3865
4.293
4.343
4.181
4.402
4.127
4.3545
4.752
3.8225
4.3055
4.004
4.286
4.395
4.59
4.012
4.3795
4.362
4.483
4.3585
4.688
3.9555
4.2475
4.2715
4.4395
3.9905
4.3795
4.4635
4.0005
4.313
4.2035
3.9075
4.2175
4.3675
4.3125
4.022
4.252
3.9905
3.9955
4.1165
4.176
4.1385
4.021
3.8855
4.002
4.502
4.5855
4.55
4.1235
4.098
0.91
